neuronv3/simulation/qsim/neuron.msim.vcd
$comment
	File created using the following command:
		vcd file neuron.msim.vcd -direction
$end
$date
	Wed Nov  7 15:34:49 2018
$end
$version
	ModelSim Version 10.5b
$end
$timescale
	1ps
$end

$scope module neuron_vhd_vec_tst $end
$var wire 1 ! clk $end
$var wire 1 " DN $end
$var wire 1 # O [15] $end
$var wire 1 $ O [14] $end
$var wire 1 % O [13] $end
$var wire 1 & O [12] $end
$var wire 1 ' O [11] $end
$var wire 1 ( O [10] $end
$var wire 1 ) O [9] $end
$var wire 1 * O [8] $end
$var wire 1 + O [7] $end
$var wire 1 , O [6] $end
$var wire 1 - O [5] $end
$var wire 1 . O [4] $end
$var wire 1 / O [3] $end
$var wire 1 0 O [2] $end
$var wire 1 1 O [1] $end
$var wire 1 2 O [0] $end
$var wire 1 3 RST $end
$var wire 1 4 slv_Win [7] $end
$var wire 1 5 slv_Win [6] $end
$var wire 1 6 slv_Win [5] $end
$var wire 1 7 slv_Win [4] $end
$var wire 1 8 slv_Win [3] $end
$var wire 1 9 slv_Win [2] $end
$var wire 1 : slv_Win [1] $end
$var wire 1 ; slv_Win [0] $end
$var wire 1 < slv_Xin [7] $end
$var wire 1 = slv_Xin [6] $end
$var wire 1 > slv_Xin [5] $end
$var wire 1 ? slv_Xin [4] $end
$var wire 1 @ slv_Xin [3] $end
$var wire 1 A slv_Xin [2] $end
$var wire 1 B slv_Xin [1] $end
$var wire 1 C slv_Xin [0] $end
$var wire 1 D start $end

$scope module i1 $end
$var wire 1 E gnd $end
$var wire 1 F vcc $end
$var wire 1 G unknown $end
$var wire 1 H devoe $end
$var wire 1 I devclrn $end
$var wire 1 J devpor $end
$var wire 1 K ww_devoe $end
$var wire 1 L ww_devclrn $end
$var wire 1 M ww_devpor $end
$var wire 1 N ww_slv_Xin [7] $end
$var wire 1 O ww_slv_Xin [6] $end
$var wire 1 P ww_slv_Xin [5] $end
$var wire 1 Q ww_slv_Xin [4] $end
$var wire 1 R ww_slv_Xin [3] $end
$var wire 1 S ww_slv_Xin [2] $end
$var wire 1 T ww_slv_Xin [1] $end
$var wire 1 U ww_slv_Xin [0] $end
$var wire 1 V ww_slv_Win [7] $end
$var wire 1 W ww_slv_Win [6] $end
$var wire 1 X ww_slv_Win [5] $end
$var wire 1 Y ww_slv_Win [4] $end
$var wire 1 Z ww_slv_Win [3] $end
$var wire 1 [ ww_slv_Win [2] $end
$var wire 1 \ ww_slv_Win [1] $end
$var wire 1 ] ww_slv_Win [0] $end
$var wire 1 ^ ww_clk $end
$var wire 1 _ ww_RST $end
$var wire 1 ` ww_start $end
$var wire 1 a ww_DN $end
$var wire 1 b ww_O [15] $end
$var wire 1 c ww_O [14] $end
$var wire 1 d ww_O [13] $end
$var wire 1 e ww_O [12] $end
$var wire 1 f ww_O [11] $end
$var wire 1 g ww_O [10] $end
$var wire 1 h ww_O [9] $end
$var wire 1 i ww_O [8] $end
$var wire 1 j ww_O [7] $end
$var wire 1 k ww_O [6] $end
$var wire 1 l ww_O [5] $end
$var wire 1 m ww_O [4] $end
$var wire 1 n ww_O [3] $end
$var wire 1 o ww_O [2] $end
$var wire 1 p ww_O [1] $end
$var wire 1 q ww_O [0] $end
$var wire 1 r \Mult_Accum|Mult0~8_AX_bus\ [8] $end
$var wire 1 s \Mult_Accum|Mult0~8_AX_bus\ [7] $end
$var wire 1 t \Mult_Accum|Mult0~8_AX_bus\ [6] $end
$var wire 1 u \Mult_Accum|Mult0~8_AX_bus\ [5] $end
$var wire 1 v \Mult_Accum|Mult0~8_AX_bus\ [4] $end
$var wire 1 w \Mult_Accum|Mult0~8_AX_bus\ [3] $end
$var wire 1 x \Mult_Accum|Mult0~8_AX_bus\ [2] $end
$var wire 1 y \Mult_Accum|Mult0~8_AX_bus\ [1] $end
$var wire 1 z \Mult_Accum|Mult0~8_AX_bus\ [0] $end
$var wire 1 { \Mult_Accum|Mult0~8_AY_bus\ [8] $end
$var wire 1 | \Mult_Accum|Mult0~8_AY_bus\ [7] $end
$var wire 1 } \Mult_Accum|Mult0~8_AY_bus\ [6] $end
$var wire 1 ~ \Mult_Accum|Mult0~8_AY_bus\ [5] $end
$var wire 1 !! \Mult_Accum|Mult0~8_AY_bus\ [4] $end
$var wire 1 "! \Mult_Accum|Mult0~8_AY_bus\ [3] $end
$var wire 1 #! \Mult_Accum|Mult0~8_AY_bus\ [2] $end
$var wire 1 $! \Mult_Accum|Mult0~8_AY_bus\ [1] $end
$var wire 1 %! \Mult_Accum|Mult0~8_AY_bus\ [0] $end
$var wire 1 &! \Mult_Accum|Mult0~8_BX_bus\ [8] $end
$var wire 1 '! \Mult_Accum|Mult0~8_BX_bus\ [7] $end
$var wire 1 (! \Mult_Accum|Mult0~8_BX_bus\ [6] $end
$var wire 1 )! \Mult_Accum|Mult0~8_BX_bus\ [5] $end
$var wire 1 *! \Mult_Accum|Mult0~8_BX_bus\ [4] $end
$var wire 1 +! \Mult_Accum|Mult0~8_BX_bus\ [3] $end
$var wire 1 ,! \Mult_Accum|Mult0~8_BX_bus\ [2] $end
$var wire 1 -! \Mult_Accum|Mult0~8_BX_bus\ [1] $end
$var wire 1 .! \Mult_Accum|Mult0~8_BX_bus\ [0] $end
$var wire 1 /! \Mult_Accum|Mult0~8_BY_bus\ [8] $end
$var wire 1 0! \Mult_Accum|Mult0~8_BY_bus\ [7] $end
$var wire 1 1! \Mult_Accum|Mult0~8_BY_bus\ [6] $end
$var wire 1 2! \Mult_Accum|Mult0~8_BY_bus\ [5] $end
$var wire 1 3! \Mult_Accum|Mult0~8_BY_bus\ [4] $end
$var wire 1 4! \Mult_Accum|Mult0~8_BY_bus\ [3] $end
$var wire 1 5! \Mult_Accum|Mult0~8_BY_bus\ [2] $end
$var wire 1 6! \Mult_Accum|Mult0~8_BY_bus\ [1] $end
$var wire 1 7! \Mult_Accum|Mult0~8_BY_bus\ [0] $end
$var wire 1 8! \Mult_Accum|Mult0~8_RESULTA_bus\ [63] $end
$var wire 1 9! \Mult_Accum|Mult0~8_RESULTA_bus\ [62] $end
$var wire 1 :! \Mult_Accum|Mult0~8_RESULTA_bus\ [61] $end
$var wire 1 ;! \Mult_Accum|Mult0~8_RESULTA_bus\ [60] $end
$var wire 1 <! \Mult_Accum|Mult0~8_RESULTA_bus\ [59] $end
$var wire 1 =! \Mult_Accum|Mult0~8_RESULTA_bus\ [58] $end
$var wire 1 >! \Mult_Accum|Mult0~8_RESULTA_bus\ [57] $end
$var wire 1 ?! \Mult_Accum|Mult0~8_RESULTA_bus\ [56] $end
$var wire 1 @! \Mult_Accum|Mult0~8_RESULTA_bus\ [55] $end
$var wire 1 A! \Mult_Accum|Mult0~8_RESULTA_bus\ [54] $end
$var wire 1 B! \Mult_Accum|Mult0~8_RESULTA_bus\ [53] $end
$var wire 1 C! \Mult_Accum|Mult0~8_RESULTA_bus\ [52] $end
$var wire 1 D! \Mult_Accum|Mult0~8_RESULTA_bus\ [51] $end
$var wire 1 E! \Mult_Accum|Mult0~8_RESULTA_bus\ [50] $end
$var wire 1 F! \Mult_Accum|Mult0~8_RESULTA_bus\ [49] $end
$var wire 1 G! \Mult_Accum|Mult0~8_RESULTA_bus\ [48] $end
$var wire 1 H! \Mult_Accum|Mult0~8_RESULTA_bus\ [47] $end
$var wire 1 I! \Mult_Accum|Mult0~8_RESULTA_bus\ [46] $end
$var wire 1 J! \Mult_Accum|Mult0~8_RESULTA_bus\ [45] $end
$var wire 1 K! \Mult_Accum|Mult0~8_RESULTA_bus\ [44] $end
$var wire 1 L! \Mult_Accum|Mult0~8_RESULTA_bus\ [43] $end
$var wire 1 M! \Mult_Accum|Mult0~8_RESULTA_bus\ [42] $end
$var wire 1 N! \Mult_Accum|Mult0~8_RESULTA_bus\ [41] $end
$var wire 1 O! \Mult_Accum|Mult0~8_RESULTA_bus\ [40] $end
$var wire 1 P! \Mult_Accum|Mult0~8_RESULTA_bus\ [39] $end
$var wire 1 Q! \Mult_Accum|Mult0~8_RESULTA_bus\ [38] $end
$var wire 1 R! \Mult_Accum|Mult0~8_RESULTA_bus\ [37] $end
$var wire 1 S! \Mult_Accum|Mult0~8_RESULTA_bus\ [36] $end
$var wire 1 T! \Mult_Accum|Mult0~8_RESULTA_bus\ [35] $end
$var wire 1 U! \Mult_Accum|Mult0~8_RESULTA_bus\ [34] $end
$var wire 1 V! \Mult_Accum|Mult0~8_RESULTA_bus\ [33] $end
$var wire 1 W! \Mult_Accum|Mult0~8_RESULTA_bus\ [32] $end
$var wire 1 X! \Mult_Accum|Mult0~8_RESULTA_bus\ [31] $end
$var wire 1 Y! \Mult_Accum|Mult0~8_RESULTA_bus\ [30] $end
$var wire 1 Z! \Mult_Accum|Mult0~8_RESULTA_bus\ [29] $end
$var wire 1 [! \Mult_Accum|Mult0~8_RESULTA_bus\ [28] $end
$var wire 1 \! \Mult_Accum|Mult0~8_RESULTA_bus\ [27] $end
$var wire 1 ]! \Mult_Accum|Mult0~8_RESULTA_bus\ [26] $end
$var wire 1 ^! \Mult_Accum|Mult0~8_RESULTA_bus\ [25] $end
$var wire 1 _! \Mult_Accum|Mult0~8_RESULTA_bus\ [24] $end
$var wire 1 `! \Mult_Accum|Mult0~8_RESULTA_bus\ [23] $end
$var wire 1 a! \Mult_Accum|Mult0~8_RESULTA_bus\ [22] $end
$var wire 1 b! \Mult_Accum|Mult0~8_RESULTA_bus\ [21] $end
$var wire 1 c! \Mult_Accum|Mult0~8_RESULTA_bus\ [20] $end
$var wire 1 d! \Mult_Accum|Mult0~8_RESULTA_bus\ [19] $end
$var wire 1 e! \Mult_Accum|Mult0~8_RESULTA_bus\ [18] $end
$var wire 1 f! \Mult_Accum|Mult0~8_RESULTA_bus\ [17] $end
$var wire 1 g! \Mult_Accum|Mult0~8_RESULTA_bus\ [16] $end
$var wire 1 h! \Mult_Accum|Mult0~8_RESULTA_bus\ [15] $end
$var wire 1 i! \Mult_Accum|Mult0~8_RESULTA_bus\ [14] $end
$var wire 1 j! \Mult_Accum|Mult0~8_RESULTA_bus\ [13] $end
$var wire 1 k! \Mult_Accum|Mult0~8_RESULTA_bus\ [12] $end
$var wire 1 l! \Mult_Accum|Mult0~8_RESULTA_bus\ [11] $end
$var wire 1 m! \Mult_Accum|Mult0~8_RESULTA_bus\ [10] $end
$var wire 1 n! \Mult_Accum|Mult0~8_RESULTA_bus\ [9] $end
$var wire 1 o! \Mult_Accum|Mult0~8_RESULTA_bus\ [8] $end
$var wire 1 p! \Mult_Accum|Mult0~8_RESULTA_bus\ [7] $end
$var wire 1 q! \Mult_Accum|Mult0~8_RESULTA_bus\ [6] $end
$var wire 1 r! \Mult_Accum|Mult0~8_RESULTA_bus\ [5] $end
$var wire 1 s! \Mult_Accum|Mult0~8_RESULTA_bus\ [4] $end
$var wire 1 t! \Mult_Accum|Mult0~8_RESULTA_bus\ [3] $end
$var wire 1 u! \Mult_Accum|Mult0~8_RESULTA_bus\ [2] $end
$var wire 1 v! \Mult_Accum|Mult0~8_RESULTA_bus\ [1] $end
$var wire 1 w! \Mult_Accum|Mult0~8_RESULTA_bus\ [0] $end
$var wire 1 x! \Mult_Accum|Mult0~24\ $end
$var wire 1 y! \Mult_Accum|Mult0~25\ $end
$var wire 1 z! \Mult_Accum|Mult0~26\ $end
$var wire 1 {! \Mult_Accum|Mult0~27\ $end
$var wire 1 |! \Mult_Accum|Mult0~28\ $end
$var wire 1 }! \Mult_Accum|Mult0~29\ $end
$var wire 1 ~! \Mult_Accum|Mult0~30\ $end
$var wire 1 !" \Mult_Accum|Mult0~31\ $end
$var wire 1 "" \Mult_Accum|Mult0~32\ $end
$var wire 1 #" \Mult_Accum|Mult0~33\ $end
$var wire 1 $" \Mult_Accum|Mult0~34\ $end
$var wire 1 %" \Mult_Accum|Mult0~35\ $end
$var wire 1 &" \Mult_Accum|Mult0~36\ $end
$var wire 1 '" \Mult_Accum|Mult0~37\ $end
$var wire 1 (" \Mult_Accum|Mult0~38\ $end
$var wire 1 )" \Mult_Accum|Mult0~39\ $end
$var wire 1 *" \Mult_Accum|Mult0~40\ $end
$var wire 1 +" \Mult_Accum|Mult0~41\ $end
$var wire 1 ," \Mult_Accum|Mult0~42\ $end
$var wire 1 -" \Mult_Accum|Mult0~43\ $end
$var wire 1 ." \Mult_Accum|Mult0~44\ $end
$var wire 1 /" \Mult_Accum|Mult0~45\ $end
$var wire 1 0" \Mult_Accum|Mult0~46\ $end
$var wire 1 1" \Mult_Accum|Mult0~47\ $end
$var wire 1 2" \Mult_Accum|Mult0~48\ $end
$var wire 1 3" \Mult_Accum|Mult0~49\ $end
$var wire 1 4" \Mult_Accum|Mult0~50\ $end
$var wire 1 5" \Mult_Accum|Mult0~51\ $end
$var wire 1 6" \Mult_Accum|Mult0~52\ $end
$var wire 1 7" \Mult_Accum|Mult0~53\ $end
$var wire 1 8" \Mult_Accum|Mult0~54\ $end
$var wire 1 9" \Mult_Accum|Mult0~55\ $end
$var wire 1 :" \Mult_Accum|Mult0~56\ $end
$var wire 1 ;" \Mult_Accum|Mult0~57\ $end
$var wire 1 <" \Mult_Accum|Mult0~58\ $end
$var wire 1 =" \Mult_Accum|Mult0~59\ $end
$var wire 1 >" \Mult_Accum|Mult0~60\ $end
$var wire 1 ?" \Mult_Accum|Mult0~61\ $end
$var wire 1 @" \Mult_Accum|Mult0~62\ $end
$var wire 1 A" \Mult_Accum|Mult0~63\ $end
$var wire 1 B" \Mult_Accum|Mult0~64\ $end
$var wire 1 C" \Mult_Accum|Mult0~65\ $end
$var wire 1 D" \Mult_Accum|Mult0~66\ $end
$var wire 1 E" \Mult_Accum|Mult0~67\ $end
$var wire 1 F" \Mult_Accum|Mult0~68\ $end
$var wire 1 G" \Mult_Accum|Mult0~69\ $end
$var wire 1 H" \Mult_Accum|Mult0~70\ $end
$var wire 1 I" \Mult_Accum|Mult0~71\ $end
$var wire 1 J" \~QUARTUS_CREATED_GND~I_combout\ $end
$var wire 1 K" \clk~input_o\ $end
$var wire 1 L" \clk~inputCLKENA0_outclk\ $end
$var wire 1 M" \start~input_o\ $end
$var wire 1 N" \slv_Xin[0]~input_o\ $end
$var wire 1 O" \slv_Xin[1]~input_o\ $end
$var wire 1 P" \slv_Xin[2]~input_o\ $end
$var wire 1 Q" \slv_Xin[3]~input_o\ $end
$var wire 1 R" \slv_Xin[4]~input_o\ $end
$var wire 1 S" \slv_Xin[5]~input_o\ $end
$var wire 1 T" \slv_Xin[6]~input_o\ $end
$var wire 1 U" \slv_Xin[7]~input_o\ $end
$var wire 1 V" \slv_Win[0]~input_o\ $end
$var wire 1 W" \slv_Win[1]~input_o\ $end
$var wire 1 X" \slv_Win[2]~input_o\ $end
$var wire 1 Y" \slv_Win[3]~input_o\ $end
$var wire 1 Z" \slv_Win[4]~input_o\ $end
$var wire 1 [" \slv_Win[5]~input_o\ $end
$var wire 1 \" \slv_Win[6]~input_o\ $end
$var wire 1 ]" \slv_Win[7]~input_o\ $end
$var wire 1 ^" \Mult_Accum|Mult0~8_resulta\ $end
$var wire 1 _" \Mult_Accum|Add0~1_sumout\ $end
$var wire 1 `" \Mult_Accum|Mult0~23\ $end
$var wire 1 a" \Mult_Accum|prod[15]~_wirecell_combout\ $end
$var wire 1 b" \RST~input_o\ $end
$var wire 1 c" \Mult_Accum|reg[15]~0_combout\ $end
$var wire 1 d" \Mult_Accum|Mult0~22\ $end
$var wire 1 e" \Mult_Accum|Mult0~21\ $end
$var wire 1 f" \Mult_Accum|Mult0~20\ $end
$var wire 1 g" \Mult_Accum|Mult0~19\ $end
$var wire 1 h" \Mult_Accum|Mult0~18\ $end
$var wire 1 i" \Mult_Accum|Mult0~17\ $end
$var wire 1 j" \Mult_Accum|Mult0~16\ $end
$var wire 1 k" \Mult_Accum|Mult0~15\ $end
$var wire 1 l" \Mult_Accum|Mult0~14\ $end
$var wire 1 m" \Mult_Accum|Mult0~13\ $end
$var wire 1 n" \Mult_Accum|Mult0~12\ $end
$var wire 1 o" \Mult_Accum|Mult0~11\ $end
$var wire 1 p" \Mult_Accum|Mult0~10\ $end
$var wire 1 q" \Mult_Accum|Mult0~9\ $end
$var wire 1 r" \Mult_Accum|Add0~2\ $end
$var wire 1 s" \Mult_Accum|Add0~9_sumout\ $end
$var wire 1 t" \Mult_Accum|Add0~10\ $end
$var wire 1 u" \Mult_Accum|Add0~13_sumout\ $end
$var wire 1 v" \Mult_Accum|Add0~14\ $end
$var wire 1 w" \Mult_Accum|Add0~17_sumout\ $end
$var wire 1 x" \Mult_Accum|Add0~18\ $end
$var wire 1 y" \Mult_Accum|Add0~21_sumout\ $end
$var wire 1 z" \Mult_Accum|Add0~22\ $end
$var wire 1 {" \Mult_Accum|Add0~25_sumout\ $end
$var wire 1 |" \Mult_Accum|Add0~26\ $end
$var wire 1 }" \Mult_Accum|Add0~29_sumout\ $end
$var wire 1 ~" \Mult_Accum|Add0~30\ $end
$var wire 1 !# \Mult_Accum|Add0~33_sumout\ $end
$var wire 1 "# \Mult_Accum|Add0~34\ $end
$var wire 1 ## \Mult_Accum|Add0~37_sumout\ $end
$var wire 1 $# \Mult_Accum|Add0~38\ $end
$var wire 1 %# \Mult_Accum|Add0~41_sumout\ $end
$var wire 1 &# \Mult_Accum|Add0~42\ $end
$var wire 1 '# \Mult_Accum|Add0~45_sumout\ $end
$var wire 1 (# \Mult_Accum|Add0~46\ $end
$var wire 1 )# \Mult_Accum|Add0~49_sumout\ $end
$var wire 1 *# \Mult_Accum|Add0~50\ $end
$var wire 1 +# \Mult_Accum|Add0~53_sumout\ $end
$var wire 1 ,# \Mult_Accum|Add0~54\ $end
$var wire 1 -# \Mult_Accum|Add0~57_sumout\ $end
$var wire 1 .# \Mult_Accum|Add0~58\ $end
$var wire 1 /# \Mult_Accum|Add0~61_sumout\ $end
$var wire 1 0# \Mult_Accum|Add0~62\ $end
$var wire 1 1# \Mult_Accum|Add0~5_sumout\ $end
$var wire 1 2# \Mult_Accum|add_truncate~0_combout\ $end
$var wire 1 3# \Activation|O[0]~0_combout\ $end
$var wire 1 4# \Activation|O[1]~1_combout\ $end
$var wire 1 5# \Activation|O[2]~2_combout\ $end
$var wire 1 6# \Activation|O[3]~3_combout\ $end
$var wire 1 7# \Activation|O[4]~4_combout\ $end
$var wire 1 8# \Activation|O[5]~5_combout\ $end
$var wire 1 9# \Activation|O[6]~6_combout\ $end
$var wire 1 :# \Activation|O[7]~7_combout\ $end
$var wire 1 ;# \Activation|O[8]~8_combout\ $end
$var wire 1 <# \Activation|O[9]~9_combout\ $end
$var wire 1 =# \Activation|O[10]~10_combout\ $end
$var wire 1 ># \Activation|O[11]~11_combout\ $end
$var wire 1 ?# \Activation|O[12]~12_combout\ $end
$var wire 1 @# \Activation|O[13]~13_combout\ $end
$var wire 1 A# \Activation|O[14]~14_combout\ $end
$var wire 1 B# \Mult_Accum|prod\ [15] $end
$var wire 1 C# \Mult_Accum|prod\ [14] $end
$var wire 1 D# \Mult_Accum|prod\ [13] $end
$var wire 1 E# \Mult_Accum|prod\ [12] $end
$var wire 1 F# \Mult_Accum|prod\ [11] $end
$var wire 1 G# \Mult_Accum|prod\ [10] $end
$var wire 1 H# \Mult_Accum|prod\ [9] $end
$var wire 1 I# \Mult_Accum|prod\ [8] $end
$var wire 1 J# \Mult_Accum|prod\ [7] $end
$var wire 1 K# \Mult_Accum|prod\ [6] $end
$var wire 1 L# \Mult_Accum|prod\ [5] $end
$var wire 1 M# \Mult_Accum|prod\ [4] $end
$var wire 1 N# \Mult_Accum|prod\ [3] $end
$var wire 1 O# \Mult_Accum|prod\ [2] $end
$var wire 1 P# \Mult_Accum|prod\ [1] $end
$var wire 1 Q# \Mult_Accum|prod\ [0] $end
$var wire 1 R# \Mult_Accum|reg\ [15] $end
$var wire 1 S# \Mult_Accum|reg\ [14] $end
$var wire 1 T# \Mult_Accum|reg\ [13] $end
$var wire 1 U# \Mult_Accum|reg\ [12] $end
$var wire 1 V# \Mult_Accum|reg\ [11] $end
$var wire 1 W# \Mult_Accum|reg\ [10] $end
$var wire 1 X# \Mult_Accum|reg\ [9] $end
$var wire 1 Y# \Mult_Accum|reg\ [8] $end
$var wire 1 Z# \Mult_Accum|reg\ [7] $end
$var wire 1 [# \Mult_Accum|reg\ [6] $end
$var wire 1 \# \Mult_Accum|reg\ [5] $end
$var wire 1 ]# \Mult_Accum|reg\ [4] $end
$var wire 1 ^# \Mult_Accum|reg\ [3] $end
$var wire 1 _# \Mult_Accum|reg\ [2] $end
$var wire 1 `# \Mult_Accum|reg\ [1] $end
$var wire 1 a# \Mult_Accum|reg\ [0] $end
$var wire 1 b# \Mult_Accum|ALT_INV_Mult0~13\ $end
$var wire 1 c# \Mult_Accum|ALT_INV_Mult0~12\ $end
$var wire 1 d# \Mult_Accum|ALT_INV_Mult0~11\ $end
$var wire 1 e# \Mult_Accum|ALT_INV_Mult0~10\ $end
$var wire 1 f# \Mult_Accum|ALT_INV_Mult0~9\ $end
$var wire 1 g# \Mult_Accum|ALT_INV_Mult0~8_resulta\ $end
$var wire 1 h# \Mult_Accum|ALT_INV_Add0~5_sumout\ $end
$var wire 1 i# \Mult_Accum|ALT_INV_reg\ [15] $end
$var wire 1 j# \Mult_Accum|ALT_INV_reg\ [14] $end
$var wire 1 k# \Mult_Accum|ALT_INV_reg\ [13] $end
$var wire 1 l# \Mult_Accum|ALT_INV_reg\ [12] $end
$var wire 1 m# \Mult_Accum|ALT_INV_reg\ [11] $end
$var wire 1 n# \Mult_Accum|ALT_INV_reg\ [10] $end
$var wire 1 o# \Mult_Accum|ALT_INV_reg\ [9] $end
$var wire 1 p# \Mult_Accum|ALT_INV_reg\ [8] $end
$var wire 1 q# \Mult_Accum|ALT_INV_reg\ [7] $end
$var wire 1 r# \Mult_Accum|ALT_INV_reg\ [6] $end
$var wire 1 s# \Mult_Accum|ALT_INV_reg\ [5] $end
$var wire 1 t# \Mult_Accum|ALT_INV_reg\ [4] $end
$var wire 1 u# \Mult_Accum|ALT_INV_reg\ [3] $end
$var wire 1 v# \Mult_Accum|ALT_INV_reg\ [2] $end
$var wire 1 w# \Mult_Accum|ALT_INV_reg\ [1] $end
$var wire 1 x# \Mult_Accum|ALT_INV_reg\ [0] $end
$var wire 1 y# \ALT_INV_start~input_o\ $end
$var wire 1 z# \ALT_INV_RST~input_o\ $end
$var wire 1 {# \Mult_Accum|ALT_INV_prod\ [15] $end
$var wire 1 |# \Mult_Accum|ALT_INV_prod\ [14] $end
$var wire 1 }# \Mult_Accum|ALT_INV_prod\ [13] $end
$var wire 1 ~# \Mult_Accum|ALT_INV_prod\ [12] $end
$var wire 1 !$ \Mult_Accum|ALT_INV_prod\ [11] $end
$var wire 1 "$ \Mult_Accum|ALT_INV_prod\ [10] $end
$var wire 1 #$ \Mult_Accum|ALT_INV_prod\ [9] $end
$var wire 1 $$ \Mult_Accum|ALT_INV_prod\ [8] $end
$var wire 1 %$ \Mult_Accum|ALT_INV_prod\ [7] $end
$var wire 1 &$ \Mult_Accum|ALT_INV_prod\ [6] $end
$var wire 1 '$ \Mult_Accum|ALT_INV_prod\ [5] $end
$var wire 1 ($ \Mult_Accum|ALT_INV_prod\ [4] $end
$var wire 1 )$ \Mult_Accum|ALT_INV_prod\ [3] $end
$var wire 1 *$ \Mult_Accum|ALT_INV_prod\ [2] $end
$var wire 1 +$ \Mult_Accum|ALT_INV_prod\ [1] $end
$var wire 1 ,$ \Mult_Accum|ALT_INV_prod\ [0] $end
$var wire 1 -$ \Mult_Accum|ALT_INV_reg[15]~0_combout\ $end
$var wire 1 .$ \Mult_Accum|ALT_INV_Mult0~23\ $end
$var wire 1 /$ \Mult_Accum|ALT_INV_Mult0~22\ $end
$var wire 1 0$ \Mult_Accum|ALT_INV_Mult0~21\ $end
$var wire 1 1$ \Mult_Accum|ALT_INV_Mult0~20\ $end
$var wire 1 2$ \Mult_Accum|ALT_INV_Mult0~19\ $end
$var wire 1 3$ \Mult_Accum|ALT_INV_Mult0~18\ $end
$var wire 1 4$ \Mult_Accum|ALT_INV_Mult0~17\ $end
$var wire 1 5$ \Mult_Accum|ALT_INV_Mult0~16\ $end
$var wire 1 6$ \Mult_Accum|ALT_INV_Mult0~15\ $end
$var wire 1 7$ \Mult_Accum|ALT_INV_Mult0~14\ $end
$upscope $end
$upscope $end
$enddefinitions $end
#0
$dumpvars
0!
0"
03
0D
0E
1F
xG
1H
1I
1J
1K
1L
1M
0^
0_
0`
0a
0x!
0y!
0z!
0{!
0|!
0}!
0~!
0!"
0""
0#"
0$"
0%"
0&"
0'"
0("
0)"
0*"
0+"
0,"
0-"
0."
0/"
00"
01"
02"
03"
04"
05"
06"
07"
08"
09"
0:"
0;"
0<"
0="
0>"
0?"
0@"
0A"
0B"
0C"
0D"
0E"
0F"
0G"
0H"
0I"
xJ"
0K"
0L"
0M"
0N"
0O"
0P"
0Q"
0R"
0S"
0T"
0U"
0V"
0W"
0X"
0Y"
0Z"
0["
0\"
0]"
0^"
x_"
0`"
xa"
0b"
0c"
0d"
0e"
0f"
0g"
0h"
0i"
0j"
0k"
0l"
0m"
0n"
0o"
0p"
0q"
0r"
xs"
0t"
xu"
0v"
xw"
0x"
xy"
0z"
x{"
0|"
x}"
0~"
x!#
0"#
x##
0$#
x%#
0&#
x'#
0(#
x)#
0*#
x+#
0,#
x-#
0.#
x/#
00#
x1#
x2#
03#
04#
05#
06#
07#
08#
09#
0:#
0;#
0<#
0=#
0>#
0?#
0@#
0A#
1b#
1c#
1d#
1e#
1f#
1g#
xh#
1y#
1z#
1-$
1.$
1/$
10$
11$
12$
13$
14$
15$
16$
17$
04
05
06
07
08
09
0:
0;
0<
0=
0>
0?
0@
0A
0B
0C
0#
0$
0%
0&
0'
0(
0)
0*
0+
0,
0-
0.
0/
00
01
02
0N
0O
0P
0Q
0R
0S
0T
0U
0V
0W
0X
0Y
0Z
0[
0\
0]
0b
0c
0d
0e
0f
0g
0h
0i
0j
0k
0l
0m
0n
0o
0p
0q
08!
09!
0:!
0;!
0<!
0=!
0>!
0?!
0@!
0A!
0B!
0C!
0D!
0E!
0F!
0G!
0H!
0I!
0J!
0K!
0L!
0M!
0N!
0O!
0P!
0Q!
0R!
0S!
0T!
0U!
0V!
0W!
0X!
0Y!
0Z!
0[!
0\!
0]!
0^!
0_!
0`!
0a!
0b!
0c!
0d!
0e!
0f!
0g!
0h!
0i!
0j!
0k!
0l!
0m!
0n!
0o!
0p!
0q!
0r!
0s!
0t!
0u!
0v!
0w!
xB#
xC#
xD#
xE#
xF#
xG#
xH#
xI#
xJ#
xK#
xL#
xM#
xN#
xO#
xP#
xQ#
0R#
0S#
0T#
0U#
0V#
0W#
0X#
0Y#
0Z#
0[#
0\#
0]#
0^#
0_#
0`#
0a#
1i#
1j#
1k#
1l#
1m#
1n#
1o#
1p#
1q#
1r#
1s#
1t#
1u#
1v#
1w#
1x#
x{#
x|#
x}#
x~#
x!$
x"$
x#$
x$$
x%$
x&$
x'$
x($
x)$
x*$
x+$
x,$
0r
0s
0t
0u
0v
0w
0x
0y
0z
0{
0|
0}
0~
0!!
0"!
0#!
0$!
0%!
0&!
0'!
0(!
0)!
0*!
0+!
0,!
0-!
0.!
0/!
00!
01!
02!
03!
04!
05!
06!
07!
$end
#40000
19
1;
1D
1]
1[
1`
1M"
1X"
1V"
0y#
1%!
1#!
0Q#
0B#
0C#
0D#
0E#
0F#
0G#
0H#
0I#
0J#
0K#
0L#
0M#
0N#
0O#
0P#
1+$
1*$
1)$
1($
1'$
1&$
1%$
1$$
1#$
1"$
1!$
1~#
1}#
1|#
1{#
1,$
0_"
1a"
01#
0/#
0-#
0+#
0)#
0'#
0%#
0##
0!#
0}"
0{"
0y"
0w"
0u"
0s"
1h#
02#
#50000
1!
1^
1K"
1L"
#60000
1B
1C
1U
1T
1O"
1N"
1z
1y
1t!
1u!
1v!
1w!
1o"
1p"
1q"
1^"
0g#
0f#
0e#
0d#
1N#
1O#
1P#
1Q#
0,$
0+$
0*$
0)$
1w"
1u"
1s"
1_"
#100000
0!
0^
0K"
0L"
#150000
1!
1^
1K"
1L"
1`#
1_#
1^#
1a#
0x#
0u#
0v#
0w#
0s"
1t"
14#
0u"
1v"
15#
0w"
1x"
16#
0_"
1r"
13#
1s"
1y"
1w"
1u"
1q
1n
1o
1p
12
11
10
1/
#200000
0!
13
0^
1_
1b"
0K"
0L"
0z#
1c"
0-$
0`#
0_#
0^#
0a#
1x#
1u#
1v#
1w#
0s"
04#
0u"
05#
0w"
06#
1_"
0r"
03#
1s"
0t"
1u"
0v"
0q
0n
0o
0p
1w"
0x"
02
01
00
0/
0y"
#250000
1!
1^
1K"
1L"
#300000
0!
09
0;
0^
0]
0[
0X"
0V"
0K"
0L"
0%!
0#!
0t!
0u!
0v!
0w!
0o"
0p"
0q"
0^"
1g#
1f#
1e#
1d#
0N#
0O#
0P#
0Q#
1,$
1+$
1*$
1)$
0w"
0u"
0s"
0_"
#350000
1!
1^
1K"
1L"
#400000
0!
0B
0C
0^
0U
0T
0O"
0N"
0K"
0L"
0z
0y
#450000
1!
1^
1K"
1L"
#500000
0!
0^
0K"
0L"
#550000
1!
1^
1K"
1L"
#560000
1;
1]
1V"
1%!
#600000
0!
0^
0K"
0L"
#640000
1B
03
1T
0_
0b"
1O"
1z#
1y
1v!
1q"
0f#
0c"
1-$
1P#
0+$
1s"
#650000
1!
1^
1K"
1L"
1`#
0w#
0s"
1t"
14#
1u"
1p
11
#700000
0!
0^
0K"
0L"
#750000
1!
1^
1K"
1L"
0`#
1_#
0v#
1w#
1s"
0t"
04#
0u"
1v"
15#
1w"
1u"
0v"
0w"
1o
0p
01
10
#800000
0!
0^
0K"
0L"
