neuronv0/simulation/qsim/neuronio.msim.vcd
$comment
	File created using the following command:
		vcd file neuronio.msim.vcd -direction
$end
$date
	Wed Apr 04 14:59:52 2018
$end
$version
	ModelSim Version 10.5b
$end
$timescale
	1ps
$end

$scope module neuronio_vhd_vec_tst $end
$var wire 1 ! A $end
$var wire 1 " B $end
$var wire 1 # SAI $end

$scope module i1 $end
$var wire 1 $ gnd $end
$var wire 1 % vcc $end
$var wire 1 & unknown $end
$var wire 1 ' devoe $end
$var wire 1 ( devclrn $end
$var wire 1 ) devpor $end
$var wire 1 * ww_devoe $end
$var wire 1 + ww_devclrn $end
$var wire 1 , ww_devpor $end
$var wire 1 - ww_A $end
$var wire 1 . ww_B $end
$var wire 1 / ww_SAI $end
$var wire 1 0 \SAI~output_o\ $end
$var wire 1 1 \A~input_o\ $end
$var wire 1 2 \B~input_o\ $end
$var wire 1 3 \xor_1|XOR_out~combout\ $end
$var wire 1 4 \ALT_INV_B~input_o\ $end
$var wire 1 5 \ALT_INV_A~input_o\ $end
$upscope $end
$upscope $end
$enddefinitions $end
#0
$dumpvars
1!
0"
1#
0$
1%
x&
1'
1(
1)
1*
1+
1,
1-
0.
1/
10
11
02
13
14
05
$end
#100000
0!
0-
01
15
03
00
0/
0#
#200000
1!
1"
1-
1.
12
11
05
04
#300000
0!
0-
01
15
13
10
1/
1#
#400000
1!
0"
1-
0.
02
11
05
14
#500000
0!
0-
01
15
03
00
0/
0#
#600000
1!
1"
1-
1.
12
11
05
04
#700000
0!
0-
01
15
13
10
1/
1#
#800000
1!
0"
1-
0.
02
11
05
14
#900000
0!
0-
01
15
03
00
0/
0#
